%YAML 1.1
%TAG !u! tag:unity3d.com,2011:
--- !u!114 &11400000
MonoBehaviour:
  m_ObjectHideFlags: 0
  m_CorrespondingSourceObject: {fileID: 0}
  m_PrefabInstance: {fileID: 0}
  m_PrefabAsset: {fileID: 0}
  m_GameObject: {fileID: 0}
  m_Enabled: 1
  m_EditorHideFlags: 0
  m_Script: {fileID: 11500000, guid: 09227d944cee6184299c89c2741cfcb3, type: 3}
  m_Name: A277F565-881F-4A98-AF5C-C6FFF6968265
  m_EditorClassIdentifier: 
  objectName: Master
  id: 4056684167
  guid: A277F565-881F-4A98-AF5C-C6FFF6968265
