%YAML 1.1
%TAG !u! tag:unity3d.com,2011:
--- !u!114 &11400000
MonoBehaviour:
  m_ObjectHideFlags: 0
  m_CorrespondingSourceObject: {fileID: 0}
  m_PrefabInstance: {fileID: 0}
  m_PrefabAsset: {fileID: 0}
  m_GameObject: {fileID: 0}
  m_Enabled: 1
  m_EditorHideFlags: 0
  m_Script: {fileID: 11500000, guid: 10ce9bba481c4ea4794c9bd173a4b677, type: 3}
  m_Name: 40A0FD8E-FD75-429A-9FA9-7F0CC0D22BD3
  m_EditorClassIdentifier: 
  objectName: boss_fin
  id: 1345733124
  guid: 40A0FD8E-FD75-429A-9FA9-7F0CC0D22BD3
