%YAML 1.1
%TAG !u! tag:unity3d.com,2011:
--- !u!114 &11400000
MonoBehaviour:
  m_ObjectHideFlags: 0
  m_CorrespondingSourceObject: {fileID: 0}
  m_PrefabInstance: {fileID: 0}
  m_PrefabAsset: {fileID: 0}
  m_GameObject: {fileID: 0}
  m_Enabled: 1
  m_EditorHideFlags: 0
  m_Script: {fileID: 11500000, guid: 10ce9bba481c4ea4794c9bd173a4b677, type: 3}
  m_Name: 777D866C-E398-472B-AB58-0F89A5165C48
  m_EditorClassIdentifier: 
  objectName: door_open
  id: 535830432
  guid: 777D866C-E398-472B-AB58-0F89A5165C48
