%YAML 1.1
%TAG !u! tag:unity3d.com,2011:
--- !u!114 &11400000
MonoBehaviour:
  m_ObjectHideFlags: 0
  m_CorrespondingSourceObject: {fileID: 0}
  m_PrefabInstance: {fileID: 0}
  m_PrefabAsset: {fileID: 0}
  m_GameObject: {fileID: 0}
  m_Enabled: 1
  m_EditorHideFlags: 0
  m_Script: {fileID: 11500000, guid: 10ce9bba481c4ea4794c9bd173a4b677, type: 3}
  m_Name: F1219DD6-E52E-4D99-A817-BC7D3846C151
  m_EditorClassIdentifier: 
  objectName: aquarium
  id: 456876952
  guid: F1219DD6-E52E-4D99-A817-BC7D3846C151
