%YAML 1.1
%TAG !u! tag:unity3d.com,2011:
--- !u!114 &11400000
MonoBehaviour:
  m_ObjectHideFlags: 0
  m_CorrespondingSourceObject: {fileID: 0}
  m_PrefabInstance: {fileID: 0}
  m_PrefabAsset: {fileID: 0}
  m_GameObject: {fileID: 0}
  m_Enabled: 1
  m_EditorHideFlags: 0
  m_Script: {fileID: 11500000, guid: e7b34507f0e81bc428e0204754e4728b, type: 3}
  m_Name: AkWwiseProjectData
  m_EditorClassIdentifier: 
  AcousticTextureWwu:
  - PhysicalPath: Virtual Acoustics\Default Work Unit.wwu
    ParentPath: Default Work Unit
    guid: f24547d2b6224e4499857451c98063db
    GuidInternal: 
    m_lastTime: -8585671947535209131
    List: []
  AuxBusWwu:
  - PhysicalPath: Master-Mixer Hierarchy\Default Work Unit.wwu
    ParentPath: Default Work Unit
    guid: 01263dc13f5a2746aef53e754fa0a246
    GuidInternal: 
    m_lastTime: -8585662475182922381
    List:
    - name: Convolution
      guid: f6cd35316cf8104b91fa8d1ed43ff052
      id: 3260090173
      PathAndIcons:
      - ElementName: Default Work Unit
        ObjectType: 12
      - ElementName: Master Audio Bus
        ObjectType: 2
      - ElementName: Convolution
        ObjectType: 1
      Path: Default Work Unit\Master Audio Bus\Convolution
    - name: LargeRoom
      guid: 3aeb5cef8bc52f45b901de27b5e150af
      id: 187046019
      PathAndIcons:
      - ElementName: Default Work Unit
        ObjectType: 12
      - ElementName: Master Audio Bus
        ObjectType: 2
      - ElementName: LargeRoom
        ObjectType: 1
      Path: Default Work Unit\Master Audio Bus\LargeRoom
    - name: Master Audio Bus
      guid: d8a41415a61d2a41a17e75ca0c2149f3
      id: 3803692087
      PathAndIcons:
      - ElementName: Default Work Unit
        ObjectType: 12
      - ElementName: Master Audio Bus
        ObjectType: 2
      Path: Default Work Unit\Master Audio Bus
    - name: SmallRoom
      guid: 592af417f260fa43ba9bcc0d26761acb
      id: 2933838247
      PathAndIcons:
      - ElementName: Default Work Unit
        ObjectType: 12
      - ElementName: Master Audio Bus
        ObjectType: 2
      - ElementName: SmallRoom
        ObjectType: 1
      Path: Default Work Unit\Master Audio Bus\SmallRoom
  BankWwu:
  - PhysicalPath: SoundBanks\Default Work Unit.wwu
    ParentPath: Default Work Unit
    guid: 544392a15d95a04d98181394485493fd
    GuidInternal: 
    m_lastTime: -8585662479327870852
    List:
    - name: Master
      guid: 65f577a21f88984aaf5cc6fff6968265
      id: 4056684167
      PathAndIcons:
      - ElementName: Default Work Unit
        ObjectType: 12
      - ElementName: Master
        ObjectType: 7
      Path: Default Work Unit\Master
  EventWwu:
  - PhysicalPath: Events\Default Work Unit.wwu
    ParentPath: Default Work Unit
    guid: 385d74840be86145831b779b98e2e5ae
    GuidInternal: 
    m_lastTime: -8585662462775454542
    List:
    - name: aquarium
      guid: d69d21f12ee5994da817bc7d3846c151
      id: 456876952
      PathAndIcons:
      - ElementName: Default Work Unit
        ObjectType: 12
      - ElementName: aquarium
        ObjectType: 3
      Path: Default Work Unit\aquarium
      maxAttenuation: 10
      maxDuration: -1
      minDuration: -1
    - name: arcade_machine
      guid: 3f3c0c6afdfd804dbfb95b3fa93629cd
      id: 207679019
      PathAndIcons:
      - ElementName: Default Work Unit
        ObjectType: 12
      - ElementName: arcade_machine
        ObjectType: 3
      Path: Default Work Unit\arcade_machine
      maxAttenuation: 20
      maxDuration: -1
      minDuration: -1
    - name: boss
      guid: 94d4c13e0d75a64d878322a19fe7bc58
      id: 1560169506
      PathAndIcons:
      - ElementName: Default Work Unit
        ObjectType: 12
      - ElementName: boss
        ObjectType: 3
      Path: Default Work Unit\boss
      maxAttenuation: 25
      maxDuration: -1
      minDuration: -1
    - name: boss_fin
      guid: 8efda04075fd9a429fa97f0cc0d22bd3
      id: 1345733124
      PathAndIcons:
      - ElementName: Default Work Unit
        ObjectType: 12
      - ElementName: boss_fin
        ObjectType: 3
      Path: Default Work Unit\boss_fin
      maxAttenuation: 25
      maxDuration: -1
      minDuration: -1
    - name: breath_jump
      guid: 7b837fe25c424a4aa975a7d12ab0a6ab
      id: 3473098846
      PathAndIcons:
      - ElementName: Default Work Unit
        ObjectType: 12
      - ElementName: Locomotion
        ObjectType: 4
      - ElementName: breath_jump
        ObjectType: 3
      Path: Default Work Unit\Locomotion\breath_jump
      maxAttenuation: 5
      maxDuration: 0.602282
      minDuration: 0.315162
    - name: breath_land_high
      guid: 18f84c9420bf4d47bdc1475491867f9f
      id: 107955376
      PathAndIcons:
      - ElementName: Default Work Unit
        ObjectType: 12
      - ElementName: Locomotion
        ObjectType: 4
      - ElementName: breath_land_high
        ObjectType: 3
      Path: Default Work Unit\Locomotion\breath_land_high
      maxAttenuation: 0
      maxDuration: 1.205828
      minDuration: 0.698073
    - name: breath_land_low
      guid: 226e50a236c374479e607aed3ef36d89
      id: 490569306
      PathAndIcons:
      - ElementName: Default Work Unit
        ObjectType: 12
      - ElementName: Locomotion
        ObjectType: 4
      - ElementName: breath_land_low
        ObjectType: 3
      Path: Default Work Unit\Locomotion\breath_land_low
      maxAttenuation: 5
      maxDuration: 0.791519
      minDuration: 0.584218
    - name: breathing
      guid: 1f1beae4888e8248a0633d75c23d7d27
      id: 238653005
      PathAndIcons:
      - ElementName: Default Work Unit
        ObjectType: 12
      - ElementName: Locomotion
        ObjectType: 4
      - ElementName: breathing
        ObjectType: 3
      Path: Default Work Unit\Locomotion\breathing
      maxAttenuation: 5
      maxDuration: -1
      minDuration: -1
    - name: cloth
      guid: 6d30ef1d2190bb40b98243ddf7bed160
      id: 1367384683
      PathAndIcons:
      - ElementName: Default Work Unit
        ObjectType: 12
      - ElementName: cloth
        ObjectType: 3
      Path: Default Work Unit\cloth
      maxAttenuation: 7
      maxDuration: 0.981633
      minDuration: 0.485766
    - name: conditioner
      guid: 8bd165be36c46145bf2ab49c0a7c62dc
      id: 1459754021
      PathAndIcons:
      - ElementName: Default Work Unit
        ObjectType: 12
      - ElementName: conditioner
        ObjectType: 3
      Path: Default Work Unit\conditioner
      maxAttenuation: 15
      maxDuration: -1
      minDuration: -1
    - name: dialog
      guid: 4f7f3fea6ab65d4e9229fe570090fda9
      id: 1235749641
      PathAndIcons:
      - ElementName: Default Work Unit
        ObjectType: 12
      - ElementName: dialog
        ObjectType: 3
      Path: Default Work Unit\dialog
      maxAttenuation: 25
      maxDuration: -1
      minDuration: -1
    - name: door_close
      guid: 260c2651ff2a6d459f4d6c25de56d526
      id: 128625444
      PathAndIcons:
      - ElementName: Default Work Unit
        ObjectType: 12
      - ElementName: door_close
        ObjectType: 3
      Path: Default Work Unit\door_close
      maxAttenuation: 15
      maxDuration: 1.207834
      minDuration: 1.207834
    - name: door_open
      guid: 6c867d7798e32b47ab580f89a5165c48
      id: 535830432
      PathAndIcons:
      - ElementName: Default Work Unit
        ObjectType: 12
      - ElementName: door_open
        ObjectType: 3
      Path: Default Work Unit\door_open
      maxAttenuation: 15
      maxDuration: 1.40625
      minDuration: 1.40625
    - name: enterance_roomtone
      guid: 7033a61249bc2141a4bf6e8499cb8bdc
      id: 3811877714
      PathAndIcons:
      - ElementName: Default Work Unit
        ObjectType: 12
      - ElementName: enterance_roomtone
        ObjectType: 3
      Path: Default Work Unit\enterance_roomtone
      maxAttenuation: 12
      maxDuration: -1
      minDuration: -1
    - name: espresso
      guid: 67239c630d19424f97bf36c4664d3e87
      id: 2288800929
      PathAndIcons:
      - ElementName: Default Work Unit
        ObjectType: 12
      - ElementName: espresso
        ObjectType: 3
      Path: Default Work Unit\espresso
      maxAttenuation: 30
      maxDuration: -1
      minDuration: -1
    - name: fan
      guid: 497dcb4eacca59468c8b3341aaedb660
      id: 1183803264
      PathAndIcons:
      - ElementName: Default Work Unit
        ObjectType: 12
      - ElementName: fan
        ObjectType: 3
      Path: Default Work Unit\fan
      maxAttenuation: 20
      maxDuration: -1
      minDuration: -1
    - name: footsteps
      guid: b8f403424f6c9f4a9bc10e987f89ec63
      id: 2385628198
      PathAndIcons:
      - ElementName: Default Work Unit
        ObjectType: 12
      - ElementName: Locomotion
        ObjectType: 4
      - ElementName: footsteps
        ObjectType: 3
      Path: Default Work Unit\Locomotion\footsteps
      maxAttenuation: 15
      maxDuration: 0.633105
      minDuration: 0.242204
    - name: fridge
      guid: 76eb3a1ff84a444db7ed77d8ecc0bdd0
      id: 2337612214
      PathAndIcons:
      - ElementName: Default Work Unit
        ObjectType: 12
      - ElementName: fridge
        ObjectType: 3
      Path: Default Work Unit\fridge
      maxAttenuation: 30
      maxDuration: -1
      minDuration: -1
    - name: idle
      guid: cbfd95968764fa4e834f6a3a4005df70
      id: 1874288895
      PathAndIcons:
      - ElementName: Default Work Unit
        ObjectType: 12
      - ElementName: Locomotion
        ObjectType: 4
      - ElementName: idle
        ObjectType: 3
      Path: Default Work Unit\Locomotion\idle
      maxAttenuation: 0
      maxDuration: 0
      minDuration: 0
    - name: kitchen_roomtone
      guid: 4e7e858b60f6144cb6091ad7a8c6eb65
      id: 1981615679
      PathAndIcons:
      - ElementName: Default Work Unit
        ObjectType: 12
      - ElementName: kitchen_roomtone
        ObjectType: 3
      Path: Default Work Unit\kitchen_roomtone
      maxAttenuation: 12
      maxDuration: -1
      minDuration: -1
    - name: Locomotion
      guid: cbd62e077202a3468ee13f02cdf06d5a
      id: 556887514
      PathAndIcons:
      - ElementName: Default Work Unit
        ObjectType: 12
      - ElementName: Locomotion
        ObjectType: 4
      - ElementName: Locomotion
        ObjectType: 3
      Path: Default Work Unit\Locomotion\Locomotion
      maxAttenuation: 0
      maxDuration: -1
      minDuration: -1
    - name: microwave
      guid: c39558b140ed42419c3b8b7b9f5ffbac
      id: 262808124
      PathAndIcons:
      - ElementName: Default Work Unit
        ObjectType: 12
      - ElementName: microwave
        ObjectType: 3
      Path: Default Work Unit\microwave
      maxAttenuation: 15
      maxDuration: -1
      minDuration: -1
    - name: outside
      guid: 07d018a090ad1d418e92f35b861bb0c4
      id: 438105790
      PathAndIcons:
      - ElementName: Default Work Unit
        ObjectType: 12
      - ElementName: outside
        ObjectType: 3
      Path: Default Work Unit\outside
      maxAttenuation: 19
      maxDuration: -1
      minDuration: -1
    - name: pingpong_clock
      guid: 23eba58b0aac2849882d49c78ccd1692
      id: 3916069748
      PathAndIcons:
      - ElementName: Default Work Unit
        ObjectType: 12
      - ElementName: pingpong_clock
        ObjectType: 3
      Path: Default Work Unit\pingpong_clock
      maxAttenuation: 15
      maxDuration: -1
      minDuration: -1
    - name: pingpong_roomtone
      guid: 77f80eac7854de40995c9eb57e3e402b
      id: 2565162239
      PathAndIcons:
      - ElementName: Default Work Unit
        ObjectType: 12
      - ElementName: pingpong_roomtone
        ObjectType: 3
      Path: Default Work Unit\pingpong_roomtone
      maxAttenuation: 12
      maxDuration: -1
      minDuration: -1
    - name: radio
      guid: 10eae102c1db324a8de761539ba3306c
      id: 2548238350
      PathAndIcons:
      - ElementName: Default Work Unit
        ObjectType: 12
      - ElementName: radio
        ObjectType: 3
      Path: Default Work Unit\radio
      maxAttenuation: 15
      maxDuration: -1
      minDuration: -1
    - name: roomtone_garage
      guid: 85c96b845105b846a23542ea51f795c0
      id: 3911565924
      PathAndIcons:
      - ElementName: Default Work Unit
        ObjectType: 12
      - ElementName: roomtone_garage
        ObjectType: 3
      Path: Default Work Unit\roomtone_garage
      maxAttenuation: 30
      maxDuration: -1
      minDuration: -1
    - name: running
      guid: 67e959a9453a4d41a091907e381b5c64
      id: 3863236874
      PathAndIcons:
      - ElementName: Default Work Unit
        ObjectType: 12
      - ElementName: Locomotion
        ObjectType: 4
      - ElementName: running
        ObjectType: 3
      Path: Default Work Unit\Locomotion\running
      maxAttenuation: 0
      maxDuration: 0
      minDuration: 0
    - name: singing
      guid: 685265e942610c458614fcacef14400a
      id: 4177142508
      PathAndIcons:
      - ElementName: Default Work Unit
        ObjectType: 12
      - ElementName: singing
        ObjectType: 3
      Path: Default Work Unit\singing
      maxAttenuation: 30
      maxDuration: -1
      minDuration: -1
    - name: slide
      guid: 3c1ae9926b2c6249b600a2a9e74ab19b
      id: 3686556480
      PathAndIcons:
      - ElementName: Default Work Unit
        ObjectType: 12
      - ElementName: Locomotion
        ObjectType: 4
      - ElementName: slide
        ObjectType: 3
      Path: Default Work Unit\Locomotion\slide
      maxAttenuation: 15
      maxDuration: 0.45675
      minDuration: 0.106167
    - name: snoring
      guid: 7a4f6a0117d0e944826e66f753d8e56f
      id: 2774057847
      PathAndIcons:
      - ElementName: Default Work Unit
        ObjectType: 12
      - ElementName: snoring
        ObjectType: 3
      Path: Default Work Unit\snoring
      maxAttenuation: 30
      maxDuration: -1
      minDuration: -1
    - name: tv
      guid: bf1d6967dae40748b90add37a2b582d0
      id: 1568083719
      PathAndIcons:
      - ElementName: Default Work Unit
        ObjectType: 12
      - ElementName: tv
        ObjectType: 3
      Path: Default Work Unit\tv
      maxAttenuation: 25
      maxDuration: -1
      minDuration: -1
    - name: vending_machine
      guid: 09daeed229576f49b2d1f53bee416cf8
      id: 3790536434
      PathAndIcons:
      - ElementName: Default Work Unit
        ObjectType: 12
      - ElementName: vending_machine
        ObjectType: 3
      Path: Default Work Unit\vending_machine
      maxAttenuation: 15
      maxDuration: -1
      minDuration: -1
    - name: walking
      guid: 7ebe7176db671d45ae0d82bae96d0a20
      id: 340271938
      PathAndIcons:
      - ElementName: Default Work Unit
        ObjectType: 12
      - ElementName: Locomotion
        ObjectType: 4
      - ElementName: walking
        ObjectType: 3
      Path: Default Work Unit\Locomotion\walking
      maxAttenuation: 0
      maxDuration: 0
      minDuration: 0
    - name: warehouse_roomtone
      guid: df548c5676a50f48885b0f67b7d211a5
      id: 2003443416
      PathAndIcons:
      - ElementName: Default Work Unit
        ObjectType: 12
      - ElementName: warehouse_roomtone
        ObjectType: 3
      Path: Default Work Unit\warehouse_roomtone
      maxAttenuation: 12
      maxDuration: -1
      minDuration: -1
    - name: waterfootstep
      guid: 5bae80457ea6224d92a4db7e6228a58b
      id: 1532808532
      PathAndIcons:
      - ElementName: Default Work Unit
        ObjectType: 12
      - ElementName: Locomotion
        ObjectType: 4
      - ElementName: waterfootstep
        ObjectType: 3
      Path: Default Work Unit\Locomotion\waterfootstep
      maxAttenuation: 0
      maxDuration: 0
      minDuration: 0
    - name: xerox
      guid: d66912f0a8ce1e4797bbd3af9a27858d
      id: 1337260899
      PathAndIcons:
      - ElementName: Default Work Unit
        ObjectType: 12
      - ElementName: xerox
        ObjectType: 3
      Path: Default Work Unit\xerox
      maxAttenuation: 20
      maxDuration: -1
      minDuration: -1
  RtpcWwu:
  - PhysicalPath: Game Parameters\Default Work Unit.wwu
    ParentPath: Default Work Unit
    guid: 0e601f23696a0d4688e466e83288b5c8
    GuidInternal: 
    m_lastTime: -8585662495533195534
    List:
    - name: RTPC_ext_FootFall
      guid: c0ebb0021a3e73499b6218f033701d90
      id: 1531195936
      PathAndIcons:
      - ElementName: Default Work Unit
        ObjectType: 12
      - ElementName: RTPC_ext_FootFall
        ObjectType: 13
      Path: Default Work Unit\RTPC_ext_FootFall
    - name: RTPC_ext_InputHorizontal
      guid: df90c4ef22492f49aea7baa3e35f0f85
      id: 4096210877
      PathAndIcons:
      - ElementName: Default Work Unit
        ObjectType: 12
      - ElementName: RTPC_ext_InputHorizontal
        ObjectType: 13
      Path: Default Work Unit\RTPC_ext_InputHorizontal
    - name: RTPC_ext_InputVertical
      guid: 455bbf3ed163a54d84a94c460296120c
      id: 4051269459
      PathAndIcons:
      - ElementName: Default Work Unit
        ObjectType: 12
      - ElementName: RTPC_ext_InputVertical
        ObjectType: 13
      Path: Default Work Unit\RTPC_ext_InputVertical
    - name: RTPC_ext_Magnitude
      guid: ce71654af6ae964f9f988626b38110ce
      id: 3172566027
      PathAndIcons:
      - ElementName: Default Work Unit
        ObjectType: 12
      - ElementName: RTPC_ext_Magnitude
        ObjectType: 13
      Path: Default Work Unit\RTPC_ext_Magnitude
    - name: RTPC_ext_stamina
      guid: fe9d7be527f12940bc495a7933a4ca58
      id: 4235028358
      PathAndIcons:
      - ElementName: Default Work Unit
        ObjectType: 12
      - ElementName: RTPC_ext_stamina
        ObjectType: 13
      Path: Default Work Unit\RTPC_ext_stamina
    - name: RTPC_in_Distance_15
      guid: a0dfbe88fce58246a2018e6242a7bddc
      id: 2540914589
      PathAndIcons:
      - ElementName: Default Work Unit
        ObjectType: 12
      - ElementName: RTPC_in_Distance_15
        ObjectType: 13
      Path: Default Work Unit\RTPC_in_Distance_15
    - name: RTPC_int_azimuth
      guid: 342e8da091335044ad7e97e060ab34c8
      id: 406513959
      PathAndIcons:
      - ElementName: Default Work Unit
        ObjectType: 12
      - ElementName: RTPC_int_azimuth
        ObjectType: 13
      Path: Default Work Unit\RTPC_int_azimuth
    - name: RTPC_int_breathmeter
      guid: 533131b1e58117469ea0746a3583426b
      id: 1139093726
      PathAndIcons:
      - ElementName: Default Work Unit
        ObjectType: 12
      - ElementName: RTPC_int_breathmeter
        ObjectType: 13
      Path: Default Work Unit\RTPC_int_breathmeter
    - name: RTPC_int_sc_slide
      guid: 6f0a9f426cae1e458362533665ba2fde
      id: 3906809821
      PathAndIcons:
      - ElementName: Default Work Unit
        ObjectType: 12
      - ElementName: RTPC_int_sc_slide
        ObjectType: 13
      Path: Default Work Unit\RTPC_int_sc_slide
    - name: RTPC_int_stress
      guid: 4f3cb739c4537d4e9a721788e10d792c
      id: 3291105113
      PathAndIcons:
      - ElementName: Default Work Unit
        ObjectType: 12
      - ElementName: RTPC_int_stress
        ObjectType: 13
      Path: Default Work Unit\RTPC_int_stress
    - name: RTPC_int_water
      guid: 0984390ea51bd743bc9319e245b4c519
      id: 1949452422
      PathAndIcons:
      - ElementName: Default Work Unit
        ObjectType: 12
      - ElementName: RTPC_int_water
        ObjectType: 13
      Path: Default Work Unit\RTPC_int_water
  StateWwu:
  - PhysicalPath: States\Default Work Unit.wwu
    ParentPath: Default Work Unit
    guid: 21d038e5f477874fa3b4657bf5cb69e2
    GuidInternal: 
    m_lastTime: -8585671947535268970
    List: []
  SwitchWwu:
  - PhysicalPath: Switches\Default Work Unit.wwu
    ParentPath: Default Work Unit
    guid: 6e4ad8b488c14048bd1f77c562f7a16d
    GuidInternal: 
    m_lastTime: -8585662618825434365
    List:
    - name: breath_stamina
      guid: d8bb1377eb3f274fb926451ea5dfd1b8
      id: 228624241
      PathAndIcons:
      - ElementName: Default Work Unit
        ObjectType: 12
      - ElementName: breath_stamina
        ObjectType: 11
      Path: Default Work Unit\breath_stamina
      values:
      - name: hi
        guid: 07be123d4a6b2c44aa9499587e74df24
        id: 1769415228
        PathAndIcons:
        - ElementName: hi
          ObjectType: 10
      - name: low
        guid: 2fa20f745fbdd54e9616d9b4cbd7a065
        id: 545371365
        PathAndIcons:
        - ElementName: low
          ObjectType: 10
      ValueGuids: []
      ValueIcons: []
      valuesInternal: []
    - name: breath_stamina_run
      guid: 17c12bc4a5b0d94a9114538b91fb43a1
      id: 2872261611
      PathAndIcons:
      - ElementName: Default Work Unit
        ObjectType: 12
      - ElementName: breath_stamina_run
        ObjectType: 11
      Path: Default Work Unit\breath_stamina_run
      values:
      - name: hi
        guid: e44e6a4938726d428440d7ba48c9c609
        id: 1769415228
        PathAndIcons:
        - ElementName: hi
          ObjectType: 10
      - name: low
        guid: f80ae9ad8f57414fab7bbc68616960d8
        id: 545371365
        PathAndIcons:
        - ElementName: low
          ObjectType: 10
      - name: med
        guid: 4047c8d0ebc53f4fb93ea1386df1b943
        id: 981339021
        PathAndIcons:
        - ElementName: med
          ObjectType: 10
      ValueGuids: []
      ValueIcons: []
      valuesInternal: []
    - name: breath_stress
      guid: 81c883358e960548b5d72e6c7c6d9106
      id: 4287239322
      PathAndIcons:
      - ElementName: Default Work Unit
        ObjectType: 12
      - ElementName: breath_stress
        ObjectType: 11
      Path: Default Work Unit\breath_stress
      values:
      - name: idle
        guid: ba70a76dd892504e93a0b4271f2845ae
        id: 1874288895
        PathAndIcons:
        - ElementName: idle
          ObjectType: 10
      - name: run
        guid: f4e93d717bca2c47ae6d1504e7e2e1e1
        id: 712161704
        PathAndIcons:
        - ElementName: run
          ObjectType: 10
      - name: walk
        guid: 37dc9ca75ceb7041a920b322d49af7b7
        id: 2108779966
        PathAndIcons:
        - ElementName: walk
          ObjectType: 10
      ValueGuids: []
      ValueIcons: []
      valuesInternal: []
    - name: breath_type
      guid: 8bbbbab70720b44c9fb324a6282158e3
      id: 2757426598
      PathAndIcons:
      - ElementName: Default Work Unit
        ObjectType: 12
      - ElementName: breath_type
        ObjectType: 11
      Path: Default Work Unit\breath_type
      values:
      - name: Exhail
        guid: efa37ee5e996b443b709d561708453f4
        id: 1194759712
        PathAndIcons:
        - ElementName: Exhail
          ObjectType: 10
      - name: Inhail
        guid: 49467957fa49e54b89e6d32499188e6a
        id: 899023246
        PathAndIcons:
        - ElementName: Inhail
          ObjectType: 10
      ValueGuids: []
      ValueIcons: []
      valuesInternal: []
    - name: breating_int_transition
      guid: 29cc71159b39e34892ce05fc96c42420
      id: 3595152761
      PathAndIcons:
      - ElementName: Default Work Unit
        ObjectType: 12
      - ElementName: breating_int_transition
        ObjectType: 11
      Path: Default Work Unit\breating_int_transition
      values:
      - name: off
        guid: 4ffc8d7986586849a47c3f1681775e3b
        id: 930712164
        PathAndIcons:
        - ElementName: off
          ObjectType: 10
      - name: on
        guid: 913b44655e566446bbee58e6332de8ce
        id: 1651971902
        PathAndIcons:
        - ElementName: on
          ObjectType: 10
      ValueGuids: []
      ValueIcons: []
      valuesInternal: []
    - name: locomotion
      guid: 3e3bef10e96f4f42b0920b78c7169d7c
      id: 556887514
      PathAndIcons:
      - ElementName: Default Work Unit
        ObjectType: 12
      - ElementName: locomotion
        ObjectType: 11
      Path: Default Work Unit\locomotion
      values:
      - name: running
        guid: b86606541839754aa8698a038ff3936b
        id: 3863236874
        PathAndIcons:
        - ElementName: running
          ObjectType: 10
      - name: walking
        guid: 3b5c564dc22fd842852354b0e396d54e
        id: 340271938
        PathAndIcons:
        - ElementName: walking
          ObjectType: 10
      ValueGuids: []
      ValueIcons: []
      valuesInternal: []
    - name: slide
      guid: 8844ffa520f7d94c8e8a3ee43659fc1b
      id: 3686556480
      PathAndIcons:
      - ElementName: Default Work Unit
        ObjectType: 12
      - ElementName: slide
        ObjectType: 11
      Path: Default Work Unit\slide
      values:
      - name: off
        guid: 35935c7dd615244881fc4ba684af7ae2
        id: 930712164
        PathAndIcons:
        - ElementName: off
          ObjectType: 10
      - name: on
        guid: eb2031cb190655428ae999b57f4bc707
        id: 1651971902
        PathAndIcons:
        - ElementName: on
          ObjectType: 10
      ValueGuids: []
      ValueIcons: []
      valuesInternal: []
    - name: surface
      guid: 3cc7bee0acc457448b9be3a6aa49cc0d
      id: 1834394558
      PathAndIcons:
      - ElementName: Default Work Unit
        ObjectType: 12
      - ElementName: surface
        ObjectType: 11
      Path: Default Work Unit\surface
      values:
      - name: carpet
        guid: 678b6345aaf58d46b814299366b2fde0
        id: 2412606308
        PathAndIcons:
        - ElementName: carpet
          ObjectType: 10
      - name: concrete
        guid: 97b102eb0a9a354ba302dd4b4df3767f
        id: 841620460
        PathAndIcons:
        - ElementName: concrete
          ObjectType: 10
      - name: tile
        guid: 0003db5c927441468004c26fa00f9b10
        id: 2637588553
        PathAndIcons:
        - ElementName: tile
          ObjectType: 10
      - name: water
        guid: e48ccdf6e5c47a4cabd6556bdd8a868b
        id: 2654748154
        PathAndIcons:
        - ElementName: water
          ObjectType: 10
      - name: wood
        guid: c3f9cbfa60fcc14a80422fb2f221e3e2
        id: 2058049674
        PathAndIcons:
        - ElementName: wood
          ObjectType: 10
      ValueGuids: []
      ValueIcons: []
      valuesInternal: []
    - name: walk_scuff
      guid: e2206f3df1956544a6458b5f8779eb26
      id: 1100312004
      PathAndIcons:
      - ElementName: Default Work Unit
        ObjectType: 12
      - ElementName: walk_scuff
        ObjectType: 11
      Path: Default Work Unit\walk_scuff
      values:
      - name: scuff
        guid: 937ad1a9786a7546aa0075fe9a89fe01
        id: 2332106820
        PathAndIcons:
        - ElementName: scuff
          ObjectType: 10
      - name: walk
        guid: daab1dee234b70449dc1647a1b963983
        id: 2108779966
        PathAndIcons:
        - ElementName: walk
          ObjectType: 10
      ValueGuids: []
      ValueIcons: []
      valuesInternal: []
  TriggerWwu:
  - PhysicalPath: Triggers\Default Work Unit.wwu
    ParentPath: Default Work Unit
    guid: e50df1a4e1ceaf419d2fedc174b6c8eb
    GuidInternal: 
    m_lastTime: -8585671947535229077
    List: []
  ExpandedItems:
  - /RoomsPortals_WwiseProject
  - /RoomsPortals_WwiseProject/Events
  - /RoomsPortals_WwiseProject/Events/Default Work Unit
  autoPopulateEnabled: 1
  CurrentPluginConfig: 
